Name,Govt,Primary,Registration Number,Owner Name,Email,Atoll,Island,Address,Primary Contact Name,Primary Contact Id,Primary Contact Email
Gdh Campus,FALSE,TRUE,234234324,Mi College,c@g.com,Gdh,Nadellaa,"aasdfsadf, asdkfjslkadjfl,ksadjfksjdflk",Azlifa,A345654,azlifa@a.com
K Campus,FALSE,FALSE,234324,Mi College,m@g.com,K,Thulusdhoo,"adsdfasdf dasfkjsldjf, skdfjlaksdjf ,sdajf klsdajfl",Aminath,A234123,p@gg.com
